verilog isim_temp "x74_194.v"
verilog isim_temp "paritate.v"
verilog isim_temp "H2.v"
verilog isim_temp "fdrse.v"
verilog isim_temp "cb4cle.v"
verilog isim_temp "top.v"
verilog isim_temp "D:/shit/14.7/ISE_DS/ISE//verilog/src/glbl.v"
